{
    "data":[
        {
            "previewImageSrc": "assets/img/tomas_logo.png",
            "thumbnailImageSrc": "assets/img/tomas_logo1.png",
            "alt": "Description for Image 1",
            "title": "Title 1"
        },
        {
            "previewImageSrc": "assets/img/img1.png",
            "thumbnailImageSrc": "assets/img/img1a.png",
            "alt": "Description for Image 2",
            "title": "Title 2"
        },
        {
            "previewImageSrc": "assets/img/img2.png",
            "thumbnailImageSrc": "assets/img/img2a.png",
            "alt": "Description for Image 2",
            "title": "Title 2"
        },
        {
            "previewImageSrc": "assets/img/gensan.png",
            "thumbnailImageSrc": "assets/img/img2a.png",
            "alt": "Description for Image 2",
            "title": "Title 2"
        }
    ]
}